{
    "swagger": "2.0",
    "info": {
        "title": "LUC Payments Services API",
        "description": "This API definitions provides a unified interface to query data related to the LUC Payment platform. ApiKeys will be provided on request after due deligence.",
        "version": "0.0.1"
    },
    "host": "0.0.0.0:8000",
    "basePath": "/api/v1",
    "schemes": [
        "https"
    ],
    "consumes": [
        "application/json"
    ],
    "produces": [
        "application/json",
        "application/jsonp",
        "application/yaml"
    ],
    "tags": [
        {
            "name": "No auth",
            "description": "Operations that do not require any authentication."
        },
        {
            "name": "collections",
            "description": "Returns multiple records."
        },
        {
            "name": "properties",
            "description": "Returns record(s) relating to a particular property or set of properties."
        },
        {
            "name": "requires auth",
            "description": "Authorization required. Any request to this endpoint must have the `api_token` and `api_secret` defined."
        },
        {
            "name": "singleton",
            "description": "Return a record instance for the given type of resource."
        },
        {
            "name": "auth",
            "description": "This endpoint is used to authenticate a client."
        },
        {
            "name": "payments",
            "description": "Returns record(s) relating to a particular payment or set of payments."
        },
        {
            "name": "tokens",
            "description": "This endpoint will return valid authentication `tokens` and `secret` to the client."
        }
    ],
    "definitions": {
        "base": {
            "format": "string",
            "type": "string"
        },
        "auth": {
            "format": "string",
            "type": "string"
        },
        "properties": {
            "format": "string",
            "type": "string"
        },
        "property": {
            "format": "string",
            "type": "string"
        },
        "payments": {
            "format": "string",
            "type": "string"
        }
    },
    "paths": {
        "/": {
            "get": {
                "operationId": "base",
                "tags": [
                    "collections",
                    "No auth"
                ],
                "description": "This endpoint returns a `JSON` object containing all the resource endpoints/schema exposed by the API server.",
                "summary": "Base endpoint for for the API server",
                "parameters": [
                ],
                "responses": {
                    "200": {
                        "description": "A json object containing all the resource endpoints/schemas exposed by the API server..",
                        "schema": {
                            "type": "array",
                            "items": {
                                "$ref": "#/definitions/base",
                                "data": {
                                    "properties": {
                                        "list_endpoint": "/api/v1/properties",
                                        "schema": "/api/v1/properties/schema"
                                    },
                                    "propertyowners": {
                                        "list_endpoint": "/api/v1/propertyowners",
                                        "schema": "/api/v1/propertyowners/schema"
                                    },
                                    "user": {
                                        "list_endpoint": "/api/v1/user",
                                        "schema": "/api/v1/user/schema"
                                    }
                                }

                            }
                        },
                        "headers": {
                            "Authorization: ApiKey": {
                                "type": "string",
                                "description": "A concatenated string containing the API Token and Secret"
                            }
                        }
                    },
                    "400": {
                        "description": "Form Validation Error"
                    }
                }
            }
        },
        "/authenticate": {
            "post": {
                "operationId": "auth",
                "tags": [
                    "auth",
                    "tokens"
                ],
                "description": "This endpoint is used for authenticating access to the resources exposed by the API.",
                "summary": "Authenticate and request API Tokens and API Secret",
                "parameters": [
                    {
                        "name": "username",
                        "in": "formData",
                        "description": "The preferred username for this account.",
                        "required": true,
                        "type": "string"
                    },
                    {
                        "name": "password",
                        "in": "formData",
                        "description": "Password for this account. A valid password `MUST` contain  least 8 characters and have at leat an uppercase, lowercase letter and a digit.",
                        "required": true,
                        "type": "string"
                    }
                ],
                "responses": {
                    "200": {
                        "description": "A json object containing the `api_token` and `api_secret`. A header will also be set in this format: `Authorization: ApiKey <api_token>:<api_secret>`.",
                        "schema": {
                            "type": "array",
                            "items": {
                                "$ref": "#/definitions/auth",
                                "api_token": "204db7bcfafb2deb7506b89eb3b9b715b09905c8",
                                "api_secret": "fSS835BJ6bNIm0Bpf9HcHn1i7gZJH5L4"
                            }
                        },
                        "headers": {
                            "Authorization: ApiKey": {
                                "type": "string",
                                "description": "A concatenated string containing the API Token and Secret"
                            }
                        }
                    },
                    "400": {
                        "description": "Form Validation Error"
                    }
                }
            }
        },
        "/properties": {
            "post": {
                "operationId": "properties",
                "tags": [
                    "properties",
                    "collections",
                    "requires auth"
                ],
                "description": "The `properties` endpoint provides access to all `Properties` resources exposed by the API.",
                "summary": "Return all listed properties",
                "parameters": [
                    {
                        "name": "api_token",
                        "in": "formData",
                        "description": "The API Token for this account.",
                        "required": true,
                        "type": "string"
                    },
                    {
                        "name": "api_secret",
                        "in": "formData",
                        "description": "API Secret for this account.",
                        "required": true,
                        "type": "string"
                    },
                    {
                        "name": "format",
                        "in": "formData",
                        "description": "Return data format. Could be any of [`json`, 'jsonp`, `yaml`]",
                        "required": false,
                        "type": "string"
                    },
                    {
                        "name": "limit",
                        "in": "formData",
                        "description": "Number of records to return per request.",
                        "required": false,
                        "default": 20,
                        "type": "integer"
                    },
                    {
                        "name": "offset",
                        "in": "formData",
                        "description": "An offset into the data set. If you wish to only return records from the row 50 upward, set `offset` to `50`.",
                        "required": false,
                        "type": "integer"
                    }
                ],
                "responses": {
                    "200": {
                        "description": "A json object containing property records. The number of properties returned is equal to the value set on by `offset`",
                        "schema": {
                            "type": "array",
                            "items": {
                                "$ref": "#/definitions/properties",
                                "meta": {
                                    "limit": 1,
                                    "next": "/api/v1/properties?limit=1&offset=1",
                                    "offset": 0,
                                    "previous": null,
                                    "total_count": 659523
                                },
                                "objects": [
                                    {
                                        "block_no": "",
                                        "closed": 0,
                                        "comments": " ",
                                        "created": "2009-04-27T13:58:43",
                                        "created_by": 13,
                                        "deed_registration": "",
                                        "deleted_date": true,
                                        "district_name": "ADALOKO",
                                        "enumeration_date": "2008-11-10",
                                        "enumerator": "",
                                        "epayment_code": "14",
                                        "flat_no": "",
                                        "gis_level_id": 0,
                                        "house_name": "",
                                        "house_no": "5",
                                        "id": 1,
                                        "kiv_comment": null,
                                        "kiv_date": null,
                                        "kiv_flag": 0,
                                        "land_area": "695",
                                        "local_government_id": 17,
                                        "mapping_type_id": 2,
                                        "modified": "2008-06-22T13:58:43",
                                        "modified_by": "19,1319533384",
                                        "parcel_idn": "257701F",
                                        "parcel_sheet_number": "516715-C4",
                                        "payer_id": "N-3173444",
                                        "pcrvalue_id": 1,
                                        "plot_no": "",
                                        "postal_code": "OJO4279-58",
                                        "ppty_comp_flag": null,
                                        "processed_stage": 2,
                                        "property_idn": "30155772",
                                        "property_usage_id": 3,
                                        "property_verified": "",
                                        "proposed_tax_category": "",
                                        "resource_uri": "/api/v1/properties/1",
                                        "s_no": null,
                                        "street_name": "OLATUJA STREET",
                                        "supervisor": "",
                                        "total_building_footprint": "213"
                                    }
                                ]
                            }
                        },
                        "headers": {
                            "Authorization: ApiKey": {
                                "type": "string",
                                "description": "A concatenated string containing the API Token and Secret"
                            }
                        }
                    },
                    "400": {
                        "description": "Form Validation Error"
                    }
                }
            }
        },
        "/properties/<pid>": {
            "post": {
                "operationId": "property",
                "tags": [
                    "properties",
                    "singleton",
                    "requires auth"
                ],
                "description": "Return the records for a property with the given property identification number (`pid`). You can also specify which fields should be returned or filter out br specifying an extra parameter in the request body.",
                "summary": "Return a property with the given `pid` (`Property IDN`).",
                "parameters": [
                    {
                        "name": "api_token",
                        "in": "formData",
                        "description": "The API Token for this account.",
                        "required": true,
                        "type": "string"
                    },
                    {
                        "name": "api_secret",
                        "in": "formData",
                        "description": "API Secret for this account.",
                        "required": true,
                        "type": "string"
                    },
                    {
                        "name": "includes",
                        "in": "formData",
                        "description": "A comma seperated list of attributes to include in the request. Default is `'all,'`",
                        "required": false,
                        "type": "string"
                    },
                    {
                        "name": "excludes",
                        "in": "formData",
                        "description": "A comma seperated list of attributes to exclude in the response. Default is `'all,'`",
                        "required": false,
                        "type": "integer"
                    }
                ],
                "responses": {
                    "200": {
                        "description": "A json object containing the records for the property with the specified `pid` (Property Identification).",
                        "schema": {
                            "type": "array",
                            "items": {
                                "$ref": "#/definitions/property",
                                "data": {
                                    "block_no": "",
                                    "closed": 0,
                                    "comments": " ",
                                    "created": "2009-04-27T13:58:43",
                                    "created_by": 13,
                                    "deed_registration": "",
                                    "deleted_date": true,
                                    "district_name": "ADALOKO",
                                    "enumeration_date": "2008-11-10",
                                    "enumerator": "",
                                    "epayment_code": "14",
                                    "flat_no": "",
                                    "gis_level_id": 0,
                                    "house_name": "",
                                    "house_no": "5",
                                    "id": 1,
                                    "kiv_comment": null,
                                    "kiv_date": null,
                                    "kiv_flag": 0,
                                    "land_area": "695",
                                    "local_government_id": 17,
                                    "mapping_type_id": 2,
                                    "modified": "2008-06-22T13:58:43",
                                    "modified_by": "19,1319533384",
                                    "parcel_idn": "257701F",
                                    "parcel_sheet_number": "516715-C4",
                                    "payer_id": "N-3173444",
                                    "pcrvalue_id": 1,
                                    "plot_no": "",
                                    "postal_code": "OJO4279-58",
                                    "ppty_comp_flag": null,
                                    "processed_stage": 2,
                                    "property_idn": "30155772",
                                    "property_usage_id": 3,
                                    "property_verified": "",
                                    "proposed_tax_category": "",
                                    "resource_uri": "/api/v1/properties/1",
                                    "s_no": null,
                                    "street_name": "OLATUJA STREET",
                                    "supervisor": "",
                                    "total_building_footprint": "213",
                                    "acct_amount_due": 100298,
                                    "property_owners": [
                                        {
                                            "owner_name": "MR. AINA IYAPO",
                                            "owner_type": "Individual"
                                        }
                                    ]
                                }

                            }
                        },
                        "headers": {
                            "Authorization: ApiKey": {
                                "type": "string",
                                "description": "A concatenated string containing the API Token and Secret"
                            }
                        }
                    },
                    "400": {
                        "description": "Form Validation Error"
                    }
                }
            }
        },
        "/payments": {
            "post": {
                "operationId": "payments",
                "tags": [
                    "payments",
                    "singleton",
                    "requires auth"
                ],
                "description": "Submit payment records for a property with the given property identification number (`pid`). A successful repose will also include the saved payload in the reponse body.",
                "summary": "Post payment data for a property.",
                "parameters": [
                    {
                        "name": "api_token",
                        "in": "formData",
                        "description": "The API Token for this account.",
                        "required": true,
                        "type": "string"
                    },
                    {
                        "name": "api_secret",
                        "in": "formData",
                        "description": "API Secret for this account.",
                        "required": true,
                        "type": "string"
                    },
                    {
                        "name": "entryid",
                        "in": "formData",
                        "description": "Your unique transaction reference code for this payment.",
                        "required": true,
                        "type": "string"
                    },
                    {
                        "name": "amount",
                        "in": "formData",
                        "description": "The amount paid.",
                        "required": true,
                        "type": "number"
                    },
                    {
                        "name": "payment_date",
                        "in": "formData",
                        "description": "The date and time the payment was made. Format: `YYYY-MM-DD HH:MM:SS` e.g `2016-01-24 15:03:01`.",
                        "required": true,
                        "type": "string"
                    },
                    {
                        "name": "payerid",
                        "in": "formData",
                        "description": "The PayerID of the account that made the payment - available in the bill information.",
                        "required": true,
                        "type": "string"
                    },
                    {
                        "name": "payername",
                        "in": "formData",
                        "description": "Name of the account that made the payment.",
                        "required": true,
                        "type": "string"
                    },
                    {
                        "name": "assessref",
                        "in": "formData",
                        "description": "Assess Reference for this account. Same as the Property IDN",
                        "required": true,
                        "type": "string"
                    },
                    {
                        "name": "address",
                        "in": "formData",
                        "description": "Physical address of the property for which is payment is being made..",
                        "required": false,
                        "type": "integer"
                    }
                ],
                "responses": {
                    "200": {
                        "description": "A json object containing the latest saved payment record for the property with the specified `pid` (Property Identification).",
                        "schema": {
                            "type": "array",
                            "items": {
                                "$ref": "#/definitions/payments",
                                "data": {
                                        "entryid":"'360356'",
                                        "amount":" '2492024.06'",
                                        "payment_date":" '2001-09-20 00:00:00'",
                                        "payerid":" 'C-1478'",
                                        "payername":" 'ZENITH BANK PLC'",
                                        "assessref":" ''",
                                        "address":" ''",
                                        "property_owners": [
                                            {
                                                "owner_name": "ZENITH BANK PLC",
                                                "owner_type": "Organisation"
                                            }
                                        ]
                                }

                            }
                        },
                        "headers": {
                            "Authorization: ApiKey": {
                                "type": "string",
                                "description": "A concatenated string containing the API Token and Secret"
                            }
                        }
                    },
                    "400": {
                        "description": "Form Validation Error"
                    }
                }
            }
        }
    }
}